graph KruskalI_MST{1 [label = "PesoTotal = 131.65261387825012"];
2 [label = "Nodo2"];
3 [label = "Nodo3"];
4 [label = "Nodo4"];
5 [label = "Nodo5"];
6 [label = "Nodo6"];
7 [label = "Nodo7"];
8 [label = "Nodo8"];
9 [label = "Nodo9"];
10 [label = "Nodo10"];
9 -- 5 [label = "11.4972105"];
2 -- 1 [label = "25.134205"];
3 -- 1 [label = "17.808558"];
4 -- 1 [label = "5.7510123"];
5 -- 1 [label = "14.731714"];
7 -- 1 [label = "8.835321"];
10 -- 9 [label = "2.9982612"];
8 -- 2 [label = "40.772434"];
10 -- 6 [label = "4.1238976"];
}