graph Prim_MST{1 [label = "PesoTotal = 2748.286926627159"];
2 [label = "Nodo2"];
3 [label = "Nodo3"];
4 [label = "Nodo4"];
5 [label = "Nodo5"];
6 [label = "Nodo6"];
7 [label = "Nodo7"];
8 [label = "Nodo8"];
9 [label = "Nodo9"];
10 [label = "Nodo10"];
11 [label = "Nodo11"];
12 [label = "Nodo12"];
13 [label = "Nodo13"];
14 [label = "Nodo14"];
15 [label = "Nodo15"];
16 [label = "Nodo16"];
17 [label = "Nodo17"];
18 [label = "Nodo18"];
19 [label = "Nodo19"];
20 [label = "Nodo20"];
21 [label = "Nodo21"];
22 [label = "Nodo22"];
23 [label = "Nodo23"];
24 [label = "Nodo24"];
25 [label = "Nodo25"];
26 [label = "Nodo26"];
27 [label = "Nodo27"];
28 [label = "Nodo28"];
29 [label = "Nodo29"];
30 [label = "Nodo30"];
31 [label = "Nodo31"];
32 [label = "Nodo32"];
33 [label = "Nodo33"];
34 [label = "Nodo34"];
35 [label = "Nodo35"];
36 [label = "Nodo36"];
37 [label = "Nodo37"];
38 [label = "Nodo38"];
39 [label = "Nodo39"];
40 [label = "Nodo40"];
41 [label = "Nodo41"];
42 [label = "Nodo42"];
43 [label = "Nodo43"];
44 [label = "Nodo44"];
45 [label = "Nodo45"];
46 [label = "Nodo46"];
47 [label = "Nodo47"];
48 [label = "Nodo48"];
49 [label = "Nodo49"];
50 [label = "Nodo50"];
51 [label = "Nodo51"];
52 [label = "Nodo52"];
53 [label = "Nodo53"];
54 [label = "Nodo54"];
55 [label = "Nodo55"];
56 [label = "Nodo56"];
57 [label = "Nodo57"];
58 [label = "Nodo58"];
59 [label = "Nodo59"];
60 [label = "Nodo60"];
61 [label = "Nodo61"];
62 [label = "Nodo62"];
63 [label = "Nodo63"];
64 [label = "Nodo64"];
65 [label = "Nodo65"];
66 [label = "Nodo66"];
67 [label = "Nodo67"];
68 [label = "Nodo68"];
69 [label = "Nodo69"];
70 [label = "Nodo70"];
71 [label = "Nodo71"];
72 [label = "Nodo72"];
73 [label = "Nodo73"];
74 [label = "Nodo74"];
75 [label = "Nodo75"];
76 [label = "Nodo76"];
77 [label = "Nodo77"];
78 [label = "Nodo78"];
79 [label = "Nodo79"];
80 [label = "Nodo80"];
81 [label = "Nodo81"];
82 [label = "Nodo82"];
83 [label = "Nodo83"];
84 [label = "Nodo84"];
85 [label = "Nodo85"];
86 [label = "Nodo86"];
87 [label = "Nodo87"];
88 [label = "Nodo88"];
89 [label = "Nodo89"];
90 [label = "Nodo90"];
91 [label = "Nodo91"];
92 [label = "Nodo92"];
93 [label = "Nodo93"];
94 [label = "Nodo94"];
95 [label = "Nodo95"];
96 [label = "Nodo96"];
97 [label = "Nodo97"];
98 [label = "Nodo98"];
99 [label = "Nodo99"];
100 [label = "Nodo100"];
101 [label = "Nodo101"];
102 [label = "Nodo102"];
103 [label = "Nodo103"];
104 [label = "Nodo104"];
105 [label = "Nodo105"];
106 [label = "Nodo106"];
107 [label = "Nodo107"];
108 [label = "Nodo108"];
109 [label = "Nodo109"];
110 [label = "Nodo110"];
111 [label = "Nodo111"];
112 [label = "Nodo112"];
113 [label = "Nodo113"];
114 [label = "Nodo114"];
115 [label = "Nodo115"];
116 [label = "Nodo116"];
117 [label = "Nodo117"];
118 [label = "Nodo118"];
119 [label = "Nodo119"];
120 [label = "Nodo120"];
121 [label = "Nodo121"];
122 [label = "Nodo122"];
123 [label = "Nodo123"];
124 [label = "Nodo124"];
125 [label = "Nodo125"];
126 [label = "Nodo126"];
127 [label = "Nodo127"];
128 [label = "Nodo128"];
129 [label = "Nodo129"];
130 [label = "Nodo130"];
131 [label = "Nodo131"];
132 [label = "Nodo132"];
133 [label = "Nodo133"];
134 [label = "Nodo134"];
135 [label = "Nodo135"];
136 [label = "Nodo136"];
137 [label = "Nodo137"];
138 [label = "Nodo138"];
139 [label = "Nodo139"];
140 [label = "Nodo140"];
141 [label = "Nodo141"];
142 [label = "Nodo142"];
143 [label = "Nodo143"];
144 [label = "Nodo144"];
145 [label = "Nodo145"];
146 [label = "Nodo146"];
147 [label = "Nodo147"];
148 [label = "Nodo148"];
149 [label = "Nodo149"];
150 [label = "Nodo150"];
123 -- 83 [label = "17.74608"];
27 -- 102 [label = "9.712342"];
143 -- 90 [label = "28.361774"];
70 -- 52 [label = "25.054283"];
141 -- 76 [label = "14.346925"];
147 -- 58 [label = "10.059083"];
50 -- 54 [label = "10.941462"];
141 -- 68 [label = "33.329838"];
24 -- 32 [label = "22.767252"];
79 -- 5 [label = "22.481731"];
54 -- 18 [label = "16.7547"];
60 -- 16 [label = "25.431005"];
79 -- 147 [label = "32.31343"];
140 -- 4 [label = "21.633713"];
121 -- 134 [label = "23.939209"];
100 -- 141 [label = "8.267199"];
6 -- 23 [label = "1.4044745"];
100 -- 97 [label = "17.463789"];
62 -- 46 [label = "9.929635"];
29 -- 126 [label = "12.411177"];
44 -- 139 [label = "10.738266"];
21 -- 57 [label = "30.759777"];
14 -- 81 [label = "21.908115"];
106 -- 9 [label = "17.560503"];
35 -- 117 [label = "6.9605236"];
18 -- 41 [label = "33.981674"];
49 -- 43 [label = "11.695657"];
26 -- 65 [label = "22.138203"];
23 -- 75 [label = "21.462519"];
75 -- 72 [label = "10.232762"];
46 -- 59 [label = "6.110103"];
125 -- 146 [label = "17.76232"];
15 -- 24 [label = "4.125821"];
122 -- 115 [label = "12.726018"];
82 -- 60 [label = "15.962875"];
100 -- 64 [label = "18.277346"];
103 -- 101 [label = "21.343721"];
120 -- 71 [label = "9.00896"];
37 -- 51 [label = "36.307755"];
38 -- 20 [label = "25.727837"];
106 -- 42 [label = "11.038017"];
136 -- 142 [label = "22.327631"];
69 -- 118 [label = "16.061554"];
25 -- 67 [label = "16.850903"];
47 -- 93 [label = "64.11575"];
26 -- 39 [label = "51.213284"];
26 -- 38 [label = "20.354414"];
28 -- 123 [label = "21.740608"];
62 -- 122 [label = "19.50201"];
56 -- 132 [label = "23.265808"];
23 -- 105 [label = "19.645359"];
85 -- 56 [label = "3.5751293"];
7 -- 112 [label = "16.158377"];
18 -- 29 [label = "2.8434758"];
144 -- 127 [label = "28.713217"];
1 -- 35 [label = "11.617588"];
126 -- 49 [label = "7.529856"];
8 -- 62 [label = "14.265151"];
144 -- 96 [label = "18.588516"];
56 -- 69 [label = "22.916048"];
59 -- 140 [label = "7.4215813"];
5 -- 74 [label = "23.099157"];
89 -- 149 [label = "32.863605"];
7 -- 12 [label = "8.09392"];
105 -- 85 [label = "9.894402"];
121 -- 30 [label = "6.134273"];
70 -- 80 [label = "29.639233"];
98 -- 78 [label = "18.205574"];
47 -- 82 [label = "1.8636203"];
26 -- 48 [label = "7.553707"];
106 -- 136 [label = "21.391962"];
117 -- 50 [label = "25.270166"];
45 -- 111 [label = "1.0310917"];
73 -- 129 [label = "33.73322"];
69 -- 120 [label = "22.215834"];
112 -- 125 [label = "18.829035"];
85 -- 44 [label = "4.344572"];
69 -- 13 [label = "19.352034"];
11 -- 40 [label = "19.440092"];
106 -- 25 [label = "9.591292"];
41 -- 133 [label = "43.565563"];
143 -- 116 [label = "18.397758"];
117 -- 106 [label = "9.022992"];
97 -- 119 [label = "5.035468"];
124 -- 14 [label = "14.236714"];
104 -- 84 [label = "41.64347"];
26 -- 98 [label = "18.957798"];
123 -- 3 [label = "13.626448"];
144 -- 15 [label = "14.660579"];
10 -- 145 [label = "16.615051"];
22 -- 55 [label = "8.120656"];
64 -- 91 [label = "20.028467"];
150 -- 19 [label = "15.021954"];
92 -- 6 [label = "5.39391"];
135 -- 109 [label = "34.893158"];
21 -- 110 [label = "37.72214"];
142 -- 2 [label = "9.258171"];
112 -- 138 [label = "46.41647"];
119 -- 108 [label = "20.722261"];
132 -- 47 [label = "26.855013"];
67 -- 100 [label = "15.271501"];
9 -- 121 [label = "4.901719"];
126 -- 28 [label = "9.246251"];
37 -- 144 [label = "1.4226314"];
17 -- 33 [label = "13.250167"];
142 -- 10 [label = "10.326763"];
8 -- 89 [label = "48.259525"];
141 -- 37 [label = "19.214378"];
24 -- 87 [label = "9.50924"];
46 -- 92 [label = "22.642885"];
32 -- 17 [label = "49.358887"];
99 -- 104 [label = "11.320031"];
74 -- 61 [label = "41.816494"];
15 -- 135 [label = "16.108839"];
40 -- 22 [label = "18.340887"];
64 -- 36 [label = "3.2526355"];
5 -- 26 [label = "4.1327667"];
147 -- 31 [label = "16.985878"];
130 -- 113 [label = "2.8024235"];
91 -- 107 [label = "14.617479"];
37 -- 94 [label = "23.643387"];
38 -- 63 [label = "6.4962263"];
7 -- 45 [label = "15.742549"];
58 -- 34 [label = "18.141762"];
105 -- 150 [label = "33.694763"];
57 -- 66 [label = "9.035401"];
40 -- 148 [label = "2.9067566"];
68 -- 70 [label = "9.727602"];
55 -- 137 [label = "7.129117"];
136 -- 27 [label = "26.587805"];
80 -- 88 [label = "29.287766"];
124 -- 131 [label = "12.3868475"];
63 -- 77 [label = "38.113205"];
101 -- 86 [label = "25.414907"];
59 -- 103 [label = "11.543834"];
27 -- 114 [label = "38.666977"];
9 -- 143 [label = "10.127185"];
144 -- 53 [label = "18.198185"];
85 -- 128 [label = "5.4141383"];
113 -- 124 [label = "26.056208"];
9 -- 79 [label = "8.383587"];
123 -- 99 [label = "24.867851"];
64 -- 8 [label = "11.941233"];
71 -- 95 [label = "17.437866"];
139 -- 21 [label = "39.693565"];
135 -- 7 [label = "4.090575"];
141 -- 130 [label = "21.8078"];
80 -- 73 [label = "39.86625"];
65 -- 11 [label = "7.4772263"];
}