graph KruskalI_MST{1 [label = "PesoTotal = 1345.2857265472412"];
2 [label = "Nodo2"];
3 [label = "Nodo3"];
4 [label = "Nodo4"];
5 [label = "Nodo5"];
6 [label = "Nodo6"];
7 [label = "Nodo7"];
8 [label = "Nodo8"];
9 [label = "Nodo9"];
10 [label = "Nodo10"];
11 [label = "Nodo11"];
12 [label = "Nodo12"];
13 [label = "Nodo13"];
14 [label = "Nodo14"];
15 [label = "Nodo15"];
16 [label = "Nodo16"];
17 [label = "Nodo17"];
18 [label = "Nodo18"];
19 [label = "Nodo19"];
20 [label = "Nodo20"];
21 [label = "Nodo21"];
22 [label = "Nodo22"];
23 [label = "Nodo23"];
24 [label = "Nodo24"];
25 [label = "Nodo25"];
26 [label = "Nodo26"];
27 [label = "Nodo27"];
28 [label = "Nodo28"];
29 [label = "Nodo29"];
30 [label = "Nodo30"];
31 [label = "Nodo31"];
32 [label = "Nodo32"];
33 [label = "Nodo33"];
34 [label = "Nodo34"];
35 [label = "Nodo35"];
36 [label = "Nodo36"];
37 [label = "Nodo37"];
38 [label = "Nodo38"];
39 [label = "Nodo39"];
40 [label = "Nodo40"];
41 [label = "Nodo41"];
42 [label = "Nodo42"];
43 [label = "Nodo43"];
44 [label = "Nodo44"];
45 [label = "Nodo45"];
46 [label = "Nodo46"];
47 [label = "Nodo47"];
48 [label = "Nodo48"];
49 [label = "Nodo49"];
50 [label = "Nodo50"];
51 [label = "Nodo51"];
52 [label = "Nodo52"];
53 [label = "Nodo53"];
54 [label = "Nodo54"];
55 [label = "Nodo55"];
56 [label = "Nodo56"];
57 [label = "Nodo57"];
58 [label = "Nodo58"];
59 [label = "Nodo59"];
60 [label = "Nodo60"];
61 [label = "Nodo61"];
62 [label = "Nodo62"];
63 [label = "Nodo63"];
64 [label = "Nodo64"];
65 [label = "Nodo65"];
66 [label = "Nodo66"];
67 [label = "Nodo67"];
68 [label = "Nodo68"];
69 [label = "Nodo69"];
70 [label = "Nodo70"];
71 [label = "Nodo71"];
72 [label = "Nodo72"];
73 [label = "Nodo73"];
74 [label = "Nodo74"];
75 [label = "Nodo75"];
76 [label = "Nodo76"];
77 [label = "Nodo77"];
78 [label = "Nodo78"];
79 [label = "Nodo79"];
80 [label = "Nodo80"];
81 [label = "Nodo81"];
82 [label = "Nodo82"];
83 [label = "Nodo83"];
84 [label = "Nodo84"];
85 [label = "Nodo85"];
86 [label = "Nodo86"];
87 [label = "Nodo87"];
88 [label = "Nodo88"];
89 [label = "Nodo89"];
90 [label = "Nodo90"];
91 [label = "Nodo91"];
92 [label = "Nodo92"];
93 [label = "Nodo93"];
94 [label = "Nodo94"];
95 [label = "Nodo95"];
96 [label = "Nodo96"];
97 [label = "Nodo97"];
98 [label = "Nodo98"];
99 [label = "Nodo99"];
100 [label = "Nodo100"];
101 [label = "Nodo101"];
102 [label = "Nodo102"];
103 [label = "Nodo103"];
104 [label = "Nodo104"];
105 [label = "Nodo105"];
106 [label = "Nodo106"];
107 [label = "Nodo107"];
108 [label = "Nodo108"];
109 [label = "Nodo109"];
110 [label = "Nodo110"];
111 [label = "Nodo111"];
112 [label = "Nodo112"];
113 [label = "Nodo113"];
114 [label = "Nodo114"];
115 [label = "Nodo115"];
116 [label = "Nodo116"];
117 [label = "Nodo117"];
118 [label = "Nodo118"];
119 [label = "Nodo119"];
120 [label = "Nodo120"];
121 [label = "Nodo121"];
122 [label = "Nodo122"];
123 [label = "Nodo123"];
124 [label = "Nodo124"];
125 [label = "Nodo125"];
126 [label = "Nodo126"];
127 [label = "Nodo127"];
128 [label = "Nodo128"];
129 [label = "Nodo129"];
130 [label = "Nodo130"];
131 [label = "Nodo131"];
132 [label = "Nodo132"];
133 [label = "Nodo133"];
134 [label = "Nodo134"];
135 [label = "Nodo135"];
136 [label = "Nodo136"];
137 [label = "Nodo137"];
138 [label = "Nodo138"];
139 [label = "Nodo139"];
140 [label = "Nodo140"];
141 [label = "Nodo141"];
142 [label = "Nodo142"];
143 [label = "Nodo143"];
144 [label = "Nodo144"];
145 [label = "Nodo145"];
146 [label = "Nodo146"];
147 [label = "Nodo147"];
148 [label = "Nodo148"];
149 [label = "Nodo149"];
150 [label = "Nodo150"];
7 -- 79 [label = "14.317733"];
36 -- 95 [label = "7.1535406"];
83 -- 84 [label = "1.6950681"];
7 -- 82 [label = "12.307812"];
9 -- 39 [label = "11.515256"];
24 -- 126 [label = "4.1181736"];
1 -- 130 [label = "3.6532214"];
48 -- 54 [label = "31.724585"];
78 -- 147 [label = "4.4625006"];
94 -- 136 [label = "5.297844"];
9 -- 52 [label = "30.60197"];
40 -- 150 [label = "2.6581004"];
36 -- 42 [label = "8.076582"];
33 -- 104 [label = "13.060301"];
34 -- 91 [label = "16.123432"];
122 -- 144 [label = "6.490473"];
22 -- 127 [label = "5.3858614"];
105 -- 131 [label = "40.473434"];
141 -- 149 [label = "5.3568764"];
141 -- 145 [label = "5.376231"];
85 -- 136 [label = "12.120176"];
42 -- 141 [label = "2.269806"];
108 -- 113 [label = "13.470116"];
28 -- 75 [label = "24.365305"];
109 -- 141 [label = "7.326453"];
34 -- 126 [label = "13.65188"];
13 -- 102 [label = "5.9447556"];
112 -- 115 [label = "14.198359"];
16 -- 88 [label = "20.481518"];
84 -- 124 [label = "3.3266559"];
14 -- 150 [label = "4.047405"];
22 -- 135 [label = "11.626268"];
77 -- 101 [label = "2.6075122"];
84 -- 132 [label = "2.5981417"];
58 -- 94 [label = "17.10321"];
16 -- 55 [label = "7.48131"];
15 -- 122 [label = "2.3857875"];
16 -- 61 [label = "21.622253"];
2 -- 25 [label = "14.303843"];
16 -- 60 [label = "14.464233"];
114 -- 139 [label = "39.105347"];
86 -- 144 [label = "6.1900244"];
79 -- 126 [label = "6.189588"];
26 -- 73 [label = "8.569227"];
38 -- 56 [label = "4.614294"];
103 -- 129 [label = "13.992637"];
10 -- 43 [label = "3.7518482"];
20 -- 121 [label = "15.126511"];
20 -- 120 [label = "18.946827"];
19 -- 111 [label = "1.4086936"];
35 -- 129 [label = "2.8027186"];
78 -- 86 [label = "4.7883873"];
75 -- 107 [label = "12.327043"];
4 -- 21 [label = "3.3545551"];
60 -- 125 [label = "8.468748"];
76 -- 138 [label = "2.9206886"];
76 -- 140 [label = "7.0192018"];
119 -- 121 [label = "9.745193"];
19 -- 51 [label = "6.7000003"];
29 -- 68 [label = "10.189256"];
59 -- 119 [label = "3.7610655"];
59 -- 106 [label = "10.501464"];
73 -- 112 [label = "9.492027"];
6 -- 137 [label = "10.896822"];
30 -- 141 [label = "10.161026"];
4 -- 93 [label = "9.36199"];
6 -- 139 [label = "2.6182046"];
12 -- 39 [label = "19.639883"];
6 -- 46 [label = "2.422414"];
22 -- 86 [label = "3.2119668"];
17 -- 102 [label = "9.604144"];
44 -- 95 [label = "20.47518"];
5 -- 117 [label = "5.104591"];
6 -- 50 [label = "10.248253"];
5 -- 126 [label = "7.171709"];
31 -- 137 [label = "3.5122676"];
4 -- 149 [label = "12.72171"];
103 -- 148 [label = "13.539445"];
8 -- 18 [label = "4.1266828"];
32 -- 70 [label = "2.115841"];
118 -- 140 [label = "2.7553878"];
89 -- 104 [label = "1.9859865"];
8 -- 41 [label = "7.768599"];
63 -- 130 [label = "3.6990592"];
80 -- 139 [label = "12.088589"];
72 -- 99 [label = "2.0131245"];
50 -- 71 [label = "2.2010255"];
72 -- 94 [label = "17.984322"];
47 -- 97 [label = "8.668757"];
54 -- 116 [label = "12.801803"];
100 -- 115 [label = "7.8846273"];
54 -- 102 [label = "4.392009"];
74 -- 81 [label = "1.1882728"];
65 -- 121 [label = "4.5318832"];
57 -- 87 [label = "21.883675"];
80 -- 92 [label = "7.508778"];
62 -- 141 [label = "6.075341"];
37 -- 105 [label = "1.7207664"];
39 -- 88 [label = "4.6937904"];
57 -- 99 [label = "5.1515737"];
69 -- 76 [label = "2.1019382"];
65 -- 143 [label = "1.8557959"];
128 -- 147 [label = "4.490406"];
62 -- 124 [label = "6.7374"];
37 -- 123 [label = "25.37726"];
29 -- 32 [label = "2.9259226"];
49 -- 98 [label = "19.37644"];
99 -- 110 [label = "5.8102984"];
90 -- 111 [label = "5.9496174"];
27 -- 78 [label = "1.6786165"];
36 -- 115 [label = "8.451305"];
90 -- 108 [label = "9.14426"];
70 -- 133 [label = "11.971421"];
27 -- 47 [label = "13.94556"];
29 -- 101 [label = "6.922864"];
111 -- 124 [label = "4.074342"];
1 -- 84 [label = "1.0140264"];
67 -- 143 [label = "9.5246"];
67 -- 146 [label = "15.889864"];
127 -- 140 [label = "2.4496584"];
55 -- 72 [label = "11.121303"];
66 -- 104 [label = "16.183285"];
3 -- 63 [label = "2.27124"];
11 -- 118 [label = "15.505813"];
112 -- 134 [label = "27.073475"];
5 -- 18 [label = "5.28429"];
84 -- 150 [label = "5.9742594"];
65 -- 101 [label = "4.4451227"];
13 -- 142 [label = "1.8923104"];
57 -- 64 [label = "10.448911"];
31 -- 37 [label = "14.427708"];
98 -- 125 [label = "7.062349"];
41 -- 65 [label = "6.2253413"];
13 -- 36 [label = "1.1744235"];
23 -- 78 [label = "8.782143"];
5 -- 69 [label = "3.4884222"];
33 -- 95 [label = "8.038433"];
75 -- 86 [label = "5.0515184"];
81 -- 109 [label = "3.9620724"];
23 -- 56 [label = "8.012972"];
45 -- 63 [label = "5.8654184"];
45 -- 53 [label = "4.6637964"];
24 -- 103 [label = "9.215348"];
33 -- 64 [label = "10.855469"];
33 -- 50 [label = "10.398884"];
53 -- 127 [label = "5.386652"];
25 -- 110 [label = "10.8925495"];
96 -- 132 [label = "7.15452"];
10 -- 133 [label = "15.597276"];
}